regression/final/log/2024-04-10_14:33:03_apb_random_read_write_override_test.log
Command: /home/harishkv/automation/Automated_regression/regression/final/./gen_exe_apb_random_read_write_override_test +UVM_TESTNAME=apb_random_read_write_override_test -l log/2024-04-10_14:33:03_apb_random_read_write_override_test.log
Chronologic VCS simulator copyright 1991-2023
Contains Synopsys proprietary information.
Compiler version U-2023.03-1; Runtime version U-2023.03-1;  Apr 10 14:33 2024
UVM_INFO /work/tools/synopsys/vcs/U-2023.03-1/etc/uvm-1.2/base/uvm_root.svh(402) @ 0: reporter [UVM/RELNOTES] 
----------------------------------------------------------------
UVM-1.2.Synopsys
(C) 2007-2014 Mentor Graphics Corporation
(C) 2007-2014 Cadence Design Systems, Inc.
(C) 2006-2014 Synopsys, Inc.
(C) 2011-2013 Cypress Semiconductor Corp.
(C) 2013-2014 NVIDIA Corporation
----------------------------------------------------------------

  ***********       IMPORTANT RELEASE NOTES         ************

  You are using a version of the UVM library that has been compiled
  with `UVM_NO_DEPRECATED undefined.
  See http://www.eda.org/svdb/view.php?id=3313 for more details.

  You are using a version of the UVM library that has been compiled
  with `UVM_OBJECT_DO_NOT_NEED_CONSTRUCTOR undefined.
  See http://www.eda.org/svdb/view.php?id=3770 for more details.

      (Specify +UVM_NO_RELNOTES to turn off this notice)

UVM_INFO @ 0: reporter [RNTST] Running test apb_random_read_write_override_test...
--------
APB read at clocks 13/14, time=140:
  A='h697d, D='hxxxx, ERROR='h0
UVM_INFO /home/harishkv/automation/Automated_regression/regression/final/agents/apb/src/apb_monitor.sv(34) @ 15000: uvm_test_top.m_env.m_apb_agent.m_apb_monitor [apb_monitor] ADDR: 697d, TYPE: 0, PRDATA: xxxx, PWDATA: 0000
UVM_INFO /home/harishkv/automation/Automated_regression/regression/final/agents/apb/src/apb_reg_adapter.sv(30) @ 15000: reporter [apb_reg_adapter] ADDR: 0000000000000000, KIND: 00000000
UVM_ERROR /home/harishkv/automation/Automated_regression/regression/final/env/src/scoreboard.sv(22) @ 15000: uvm_test_top.m_env.m_scoreboard [chip_scoreboard] ERROR:: PERROR raised by the slave
--------
APB read at clocks 22/23, time=230:
  A='h927a, D='hxxxx, ERROR='h0
UVM_INFO /home/harishkv/automation/Automated_regression/regression/final/agents/apb/src/apb_monitor.sv(34) @ 24000: uvm_test_top.m_env.m_apb_agent.m_apb_monitor [apb_monitor] ADDR: 927a, TYPE: 0, PRDATA: xxxx, PWDATA: 0000
UVM_INFO /home/harishkv/automation/Automated_regression/regression/final/agents/apb/src/apb_reg_adapter.sv(30) @ 24000: reporter [apb_reg_adapter] ADDR: 0000000000000000, KIND: 00000000
UVM_ERROR /home/harishkv/automation/Automated_regression/regression/final/env/src/scoreboard.sv(22) @ 24000: uvm_test_top.m_env.m_scoreboard [chip_scoreboard] ERROR:: PERROR raised by the slave
--------
APB write at clocks 32/33, time=330:
  A='hff87, D='h4f47, ERROR='h0
UVM_INFO /home/harishkv/automation/Automated_regression/regression/final/agents/apb/src/apb_monitor.sv(34) @ 34000: uvm_test_top.m_env.m_apb_agent.m_apb_monitor [apb_monitor] ADDR: ff87, TYPE: 1, PRDATA: xxxx, PWDATA: 4f47
UVM_INFO /home/harishkv/automation/Automated_regression/regression/final/agents/apb/src/apb_reg_adapter.sv(30) @ 34000: reporter [apb_reg_adapter] ADDR: 0000000000000000, KIND: 00000000
UVM_ERROR /home/harishkv/automation/Automated_regression/regression/final/env/src/scoreboard.sv(22) @ 34000: uvm_test_top.m_env.m_scoreboard [chip_scoreboard] ERROR:: PERROR raised by the slave
--------
APB write at clocks 41/42, time=420:
  A='hff7b, D='he6a6, ERROR='h0
UVM_INFO /home/harishkv/automation/Automated_regression/regression/final/agents/apb/src/apb_monitor.sv(34) @ 43000: uvm_test_top.m_env.m_apb_agent.m_apb_monitor [apb_monitor] ADDR: ff7b, TYPE: 1, PRDATA: xxxx, PWDATA: e6a6
UVM_INFO /home/harishkv/automation/Automated_regression/regression/final/agents/apb/src/apb_reg_adapter.sv(30) @ 43000: reporter [apb_reg_adapter] ADDR: 0000000000000000, KIND: 00000000
UVM_ERROR /home/harishkv/automation/Automated_regression/regression/final/env/src/scoreboard.sv(22) @ 43000: uvm_test_top.m_env.m_scoreboard [chip_scoreboard] ERROR:: PERROR raised by the slave
--------
APB read at clocks 52/53, time=530:
  A='h9de5, D='hxxxx, ERROR='h0
UVM_INFO /home/harishkv/automation/Automated_regression/regression/final/agents/apb/src/apb_monitor.sv(34) @ 54000: uvm_test_top.m_env.m_apb_agent.m_apb_monitor [apb_monitor] ADDR: 9de5, TYPE: 0, PRDATA: xxxx, PWDATA: 0000
UVM_INFO /home/harishkv/automation/Automated_regression/regression/final/agents/apb/src/apb_reg_adapter.sv(30) @ 54000: reporter [apb_reg_adapter] ADDR: 0000000000000000, KIND: 00000000
UVM_ERROR /home/harishkv/automation/Automated_regression/regression/final/env/src/scoreboard.sv(22) @ 54000: uvm_test_top.m_env.m_scoreboard [chip_scoreboard] ERROR:: PERROR raised by the slave
--------
APB read at clocks 63/64, time=640:
  A='hfff9, D='hxxxx, ERROR='h0
UVM_INFO /home/harishkv/automation/Automated_regression/regression/final/agents/apb/src/apb_monitor.sv(34) @ 65000: uvm_test_top.m_env.m_apb_agent.m_apb_monitor [apb_monitor] ADDR: fff9, TYPE: 0, PRDATA: xxxx, PWDATA: 0000
UVM_INFO /home/harishkv/automation/Automated_regression/regression/final/agents/apb/src/apb_reg_adapter.sv(30) @ 65000: reporter [apb_reg_adapter] ADDR: 0000000000000000, KIND: 00000000
UVM_ERROR /home/harishkv/automation/Automated_regression/regression/final/env/src/scoreboard.sv(22) @ 65000: uvm_test_top.m_env.m_scoreboard [chip_scoreboard] ERROR:: PERROR raised by the slave
--------
APB read at clocks 74/75, time=750:
  A='h9817, D='hxxxx, ERROR='h0
UVM_INFO /home/harishkv/automation/Automated_regression/regression/final/agents/apb/src/apb_monitor.sv(34) @ 76000: uvm_test_top.m_env.m_apb_agent.m_apb_monitor [apb_monitor] ADDR: 9817, TYPE: 0, PRDATA: xxxx, PWDATA: 0000
UVM_INFO /home/harishkv/automation/Automated_regression/regression/final/agents/apb/src/apb_reg_adapter.sv(30) @ 76000: reporter [apb_reg_adapter] ADDR: 0000000000000000, KIND: 00000000
UVM_ERROR /home/harishkv/automation/Automated_regression/regression/final/env/src/scoreboard.sv(22) @ 76000: uvm_test_top.m_env.m_scoreboard [chip_scoreboard] ERROR:: PERROR raised by the slave
--------
APB write at clocks 84/85, time=850:
  A='h93b9, D='h2c51, ERROR='h0
UVM_INFO /home/harishkv/automation/Automated_regression/regression/final/agents/apb/src/apb_monitor.sv(34) @ 86000: uvm_test_top.m_env.m_apb_agent.m_apb_monitor [apb_monitor] ADDR: 93b9, TYPE: 1, PRDATA: xxxx, PWDATA: 2c51
UVM_INFO /home/harishkv/automation/Automated_regression/regression/final/agents/apb/src/apb_reg_adapter.sv(30) @ 86000: reporter [apb_reg_adapter] ADDR: 0000000000000000, KIND: 00000000
UVM_ERROR /home/harishkv/automation/Automated_regression/regression/final/env/src/scoreboard.sv(22) @ 86000: uvm_test_top.m_env.m_scoreboard [chip_scoreboard] ERROR:: PERROR raised by the slave
--------
APB write at clocks 93/94, time=940:
  A='h85e4, D='hd06b, ERROR='h0
UVM_INFO /home/harishkv/automation/Automated_regression/regression/final/agents/apb/src/apb_monitor.sv(34) @ 95000: uvm_test_top.m_env.m_apb_agent.m_apb_monitor [apb_monitor] ADDR: 85e4, TYPE: 1, PRDATA: xxxx, PWDATA: d06b
UVM_INFO /home/harishkv/automation/Automated_regression/regression/final/agents/apb/src/apb_reg_adapter.sv(30) @ 95000: reporter [apb_reg_adapter] ADDR: 0000000000000000, KIND: 00000000
UVM_ERROR /home/harishkv/automation/Automated_regression/regression/final/env/src/scoreboard.sv(22) @ 95000: uvm_test_top.m_env.m_scoreboard [chip_scoreboard] ERROR:: PERROR raised by the slave
--------
APB write at clocks 103/104, time=1040:
  A='h7b3a, D='h0c0b, ERROR='h0
UVM_INFO /home/harishkv/automation/Automated_regression/regression/final/agents/apb/src/apb_monitor.sv(34) @ 105000: uvm_test_top.m_env.m_apb_agent.m_apb_monitor [apb_monitor] ADDR: 7b3a, TYPE: 1, PRDATA: xxxx, PWDATA: 0c0b
UVM_INFO /home/harishkv/automation/Automated_regression/regression/final/agents/apb/src/apb_reg_adapter.sv(30) @ 105000: reporter [apb_reg_adapter] ADDR: 0000000000000000, KIND: 00000000
UVM_ERROR /home/harishkv/automation/Automated_regression/regression/final/env/src/scoreboard.sv(22) @ 105000: uvm_test_top.m_env.m_scoreboard [chip_scoreboard] ERROR:: PERROR raised by the slave
--------
APB read at clocks 114/115, time=1150:
  A='h0378, D='hxxxx, ERROR='h0
UVM_INFO /home/harishkv/automation/Automated_regression/regression/final/agents/apb/src/apb_monitor.sv(34) @ 116000: uvm_test_top.m_env.m_apb_agent.m_apb_monitor [apb_monitor] ADDR: 0378, TYPE: 0, PRDATA: xxxx, PWDATA: 0000
UVM_INFO /home/harishkv/automation/Automated_regression/regression/final/agents/apb/src/apb_reg_adapter.sv(30) @ 116000: reporter [apb_reg_adapter] ADDR: 0000000000000000, KIND: 00000000
UVM_ERROR /home/harishkv/automation/Automated_regression/regression/final/env/src/scoreboard.sv(22) @ 116000: uvm_test_top.m_env.m_scoreboard [chip_scoreboard] ERROR:: PERROR raised by the slave
--------
APB write at clocks 123/124, time=1240:
  A='h0bf3, D='hced0, ERROR='h0
UVM_INFO /home/harishkv/automation/Automated_regression/regression/final/agents/apb/src/apb_monitor.sv(34) @ 125000: uvm_test_top.m_env.m_apb_agent.m_apb_monitor [apb_monitor] ADDR: 0bf3, TYPE: 1, PRDATA: xxxx, PWDATA: ced0
UVM_INFO /home/harishkv/automation/Automated_regression/regression/final/agents/apb/src/apb_reg_adapter.sv(30) @ 125000: reporter [apb_reg_adapter] ADDR: 0000000000000000, KIND: 00000000
UVM_ERROR /home/harishkv/automation/Automated_regression/regression/final/env/src/scoreboard.sv(22) @ 125000: uvm_test_top.m_env.m_scoreboard [chip_scoreboard] ERROR:: PERROR raised by the slave
--------
APB read at clocks 134/135, time=1350:
  A='h3a49, D='hxxxx, ERROR='h0
UVM_INFO /home/harishkv/automation/Automated_regression/regression/final/agents/apb/src/apb_monitor.sv(34) @ 136000: uvm_test_top.m_env.m_apb_agent.m_apb_monitor [apb_monitor] ADDR: 3a49, TYPE: 0, PRDATA: xxxx, PWDATA: 0000
UVM_INFO /home/harishkv/automation/Automated_regression/regression/final/agents/apb/src/apb_reg_adapter.sv(30) @ 136000: reporter [apb_reg_adapter] ADDR: 0000000000000000, KIND: 00000000
UVM_ERROR /home/harishkv/automation/Automated_regression/regression/final/env/src/scoreboard.sv(22) @ 136000: uvm_test_top.m_env.m_scoreboard [chip_scoreboard] ERROR:: PERROR raised by the slave
--------
APB write at clocks 143/144, time=1440:
  A='hffc1, D='hd944, ERROR='h0
UVM_INFO /home/harishkv/automation/Automated_regression/regression/final/agents/apb/src/apb_monitor.sv(34) @ 145000: uvm_test_top.m_env.m_apb_agent.m_apb_monitor [apb_monitor] ADDR: ffc1, TYPE: 1, PRDATA: xxxx, PWDATA: d944
UVM_INFO /home/harishkv/automation/Automated_regression/regression/final/agents/apb/src/apb_reg_adapter.sv(30) @ 145000: reporter [apb_reg_adapter] ADDR: 0000000000000000, KIND: 00000000
UVM_ERROR /home/harishkv/automation/Automated_regression/regression/final/env/src/scoreboard.sv(22) @ 145000: uvm_test_top.m_env.m_scoreboard [chip_scoreboard] ERROR:: PERROR raised by the slave
--------
APB read at clocks 154/155, time=1550:
  A='h479d, D='hxxxx, ERROR='h0
UVM_INFO /home/harishkv/automation/Automated_regression/regression/final/agents/apb/src/apb_monitor.sv(34) @ 156000: uvm_test_top.m_env.m_apb_agent.m_apb_monitor [apb_monitor] ADDR: 479d, TYPE: 0, PRDATA: xxxx, PWDATA: 0000
UVM_INFO /home/harishkv/automation/Automated_regression/regression/final/agents/apb/src/apb_reg_adapter.sv(30) @ 156000: reporter [apb_reg_adapter] ADDR: 0000000000000000, KIND: 00000000
UVM_ERROR /home/harishkv/automation/Automated_regression/regression/final/env/src/scoreboard.sv(22) @ 156000: uvm_test_top.m_env.m_scoreboard [chip_scoreboard] ERROR:: PERROR raised by the slave
--------
APB read at clocks 163/164, time=1640:
  A='h90bc, D='hxxxx, ERROR='h0
UVM_INFO /home/harishkv/automation/Automated_regression/regression/final/agents/apb/src/apb_monitor.sv(34) @ 165000: uvm_test_top.m_env.m_apb_agent.m_apb_monitor [apb_monitor] ADDR: 90bc, TYPE: 0, PRDATA: xxxx, PWDATA: 0000
UVM_INFO /home/harishkv/automation/Automated_regression/regression/final/agents/apb/src/apb_reg_adapter.sv(30) @ 165000: reporter [apb_reg_adapter] ADDR: 0000000000000000, KIND: 00000000
UVM_ERROR /home/harishkv/automation/Automated_regression/regression/final/env/src/scoreboard.sv(22) @ 165000: uvm_test_top.m_env.m_scoreboard [chip_scoreboard] ERROR:: PERROR raised by the slave
--------
APB write at clocks 173/174, time=1740:
  A='h7d18, D='hbf47, ERROR='h0
UVM_INFO /home/harishkv/automation/Automated_regression/regression/final/agents/apb/src/apb_monitor.sv(34) @ 175000: uvm_test_top.m_env.m_apb_agent.m_apb_monitor [apb_monitor] ADDR: 7d18, TYPE: 1, PRDATA: xxxx, PWDATA: bf47
UVM_INFO /home/harishkv/automation/Automated_regression/regression/final/agents/apb/src/apb_reg_adapter.sv(30) @ 175000: reporter [apb_reg_adapter] ADDR: 0000000000000000, KIND: 00000000
UVM_ERROR /home/harishkv/automation/Automated_regression/regression/final/env/src/scoreboard.sv(22) @ 175000: uvm_test_top.m_env.m_scoreboard [chip_scoreboard] ERROR:: PERROR raised by the slave
--------
APB read at clocks 182/183, time=1830:
  A='ha2cc, D='hxxxx, ERROR='h0
UVM_INFO /home/harishkv/automation/Automated_regression/regression/final/agents/apb/src/apb_monitor.sv(34) @ 184000: uvm_test_top.m_env.m_apb_agent.m_apb_monitor [apb_monitor] ADDR: a2cc, TYPE: 0, PRDATA: xxxx, PWDATA: 0000
UVM_INFO /home/harishkv/automation/Automated_regression/regression/final/agents/apb/src/apb_reg_adapter.sv(30) @ 184000: reporter [apb_reg_adapter] ADDR: 0000000000000000, KIND: 00000000
UVM_ERROR /home/harishkv/automation/Automated_regression/regression/final/env/src/scoreboard.sv(22) @ 184000: uvm_test_top.m_env.m_scoreboard [chip_scoreboard] ERROR:: PERROR raised by the slave
--------
APB read at clocks 192/193, time=1930:
  A='h758d, D='hxxxx, ERROR='h0
UVM_INFO /home/harishkv/automation/Automated_regression/regression/final/agents/apb/src/apb_monitor.sv(34) @ 194000: uvm_test_top.m_env.m_apb_agent.m_apb_monitor [apb_monitor] ADDR: 758d, TYPE: 0, PRDATA: xxxx, PWDATA: 0000
UVM_INFO /home/harishkv/automation/Automated_regression/regression/final/agents/apb/src/apb_reg_adapter.sv(30) @ 194000: reporter [apb_reg_adapter] ADDR: 0000000000000000, KIND: 00000000
UVM_ERROR /home/harishkv/automation/Automated_regression/regression/final/env/src/scoreboard.sv(22) @ 194000: uvm_test_top.m_env.m_scoreboard [chip_scoreboard] ERROR:: PERROR raised by the slave
--------
APB read at clocks 202/203, time=2030:
  A='hffd8, D='hxxxx, ERROR='h0
UVM_INFO /home/harishkv/automation/Automated_regression/regression/final/agents/apb/src/apb_monitor.sv(34) @ 204000: uvm_test_top.m_env.m_apb_agent.m_apb_monitor [apb_monitor] ADDR: ffd8, TYPE: 0, PRDATA: xxxx, PWDATA: 0000
UVM_INFO /home/harishkv/automation/Automated_regression/regression/final/agents/apb/src/apb_reg_adapter.sv(30) @ 204000: reporter [apb_reg_adapter] ADDR: 0000000000000000, KIND: 00000000
UVM_ERROR /home/harishkv/automation/Automated_regression/regression/final/env/src/scoreboard.sv(22) @ 204000: uvm_test_top.m_env.m_scoreboard [chip_scoreboard] ERROR:: PERROR raised by the slave
UVM_INFO /work/tools/synopsys/vcs/U-2023.03-1/etc/uvm-1.2/base/uvm_objection.svh(1276) @ 205000: reporter [TEST_DONE] 'run' phase is ready to proceed to the 'extract' phase
UVM_ERROR /home/harishkv/automation/Automated_regression/regression/final/env/src/scoreboard.sv(50) @ 205000: uvm_test_top.m_env.m_scoreboard [chip_scoreboard] ---------- SIMULATION FAILED ----------
UVM_INFO /home/harishkv/automation/Automated_regression/regression/final/env/src/scoreboard.sv(54) @ 205000: uvm_test_top.m_env.m_scoreboard [chip_scoreboard] Error_Count = 00000014
UVM_INFO /work/tools/synopsys/vcs/U-2023.03-1/etc/uvm-1.2/base/uvm_report_server.svh(904) @ 205000: reporter [UVM/REPORT/SERVER] 
--- UVM Report Summary ---

** Report counts by severity
UVM_INFO :   44
UVM_WARNING :    0
UVM_ERROR :   21
UVM_FATAL :    0
** Report counts by id
[RNTST]     1
[TEST_DONE]     1
[UVM/RELNOTES]     1
[apb_monitor]    20
[apb_reg_adapter]    20
[chip_scoreboard]    22

$finish called from file "/work/tools/synopsys/vcs/U-2023.03-1/etc/uvm-1.2/base/uvm_root.svh", line 527.
$finish at simulation time               205000
           V C S   S i m u l a t i o n   R e p o r t 
Time: 2050000 ps
CPU Time:      0.420 seconds;       Data structure size:   0.2Mb
Wed Apr 10 14:33:05 2024
